{
	"ggHgEW":{
		"directory":"ComputationFormFacGGHGEW",
		"fortran_bridge":"fortran_bridge_ggHg_EW.cpp",
		"fortran_evaluation":"set_coefficient_ggHg_EW.f",
		"coupling_update_function":["setGGHGEW"],
		"tensor_structures":["gggHTensStruc1","gggHTensStruc2","gggHTensStruc3","gggHTensStruc4"],
	    "associated_coupling":["GGGHEW"],
		"fortran_cache": "gghgEW_cache.inc",
		"gluon_number":3
	},
	"ggHgEWZZ":{
		"directory":"ComputationFormFacGGHGEW",
		"fortran_bridge":"fortran_bridge_ggHg_EW.cpp",
		"fortran_evaluation":"set_coefficient_ggHg_EW.f",
		"coupling_update_function":["setGGHGEWZZ"],
		"tensor_structures":["gggHTensStruc1","gggHTensStruc2","gggHTensStruc3","gggHTensStruc4"],
	    "associated_coupling":["ZZ","GGGHEW"],
		"fortran_cache": "gghgEW_cache.inc",
		"gluon_number":3
	},
	"ggHgEWWW":{
		"directory":"ComputationFormFacGGHGEW",
		"fortran_bridge":"fortran_bridge_ggHg_EW.cpp",
		"fortran_evaluation":"set_coefficient_ggHg_EW.f",
		"coupling_update_function":["setGGHGEWWW"],
		"tensor_structures":["gggHTensStruc1","gggHTensStruc2","gggHTensStruc3","gggHTensStruc4"],
	    "associated_coupling":["WW","GGGHEW"],
		"fortran_cache": "gghgEW_cache.inc",
		"gluon_number":3
	},
	"ggHEW":{
		"directory":"ComputationFormFacEWVirtuals",
		"fortran_bridge":"fortran_bridge_EW_ggH.cpp",
		"fortran_evaluation":"set_coefficient_EW_ggH.f",
		"coupling_update_function":["setGGHEWCoeffs"],
		"tensor_structures":["ggHTensStruc1"],
	    "associated_coupling":["GGHEW"],
		"fortran_cache": "gghEW_cache.inc",
		"gluon_number":2
	},
	"ggHEWZZ":{
		"directory":"ComputationFormFacEWVirtuals",
		"fortran_bridge":"fortran_bridge_EW_ggH.cpp",
		"fortran_evaluation":"set_coefficient_EW_ggH.f",
		"coupling_update_function":["setGGHEWCoeffsZZ"],
		"tensor_structures":["ggHTensStruc1"],
	    "associated_coupling":["ZZ","GGHEW"],
		"fortran_cache": "gghEW_cache.inc",
		"gluon_number":2
	},
	"ggHEWWW":{
		"directory":"ComputationFormFacEWVirtuals",
		"fortran_bridge":"fortran_bridge_EW_ggH.cpp",
		"fortran_evaluation":"set_coefficient_EW_ggH.f",
		"coupling_update_function":["setGGHEWCoeffsWW"],
		"tensor_structures":["ggHTensStruc1"],
	    "associated_coupling":["WW","GGHEW"],
		"fortran_cache": "gghEW_cache.inc",
		"gluon_number":2
	},

	"ggHgHEFT":{
		"directory":"ComputationFormFacHEFT",
		"fortran_bridge":"fortran_bridge_HEFT_ggHg.cpp",
		"fortran_evaluation":"set_coefficient_HEFT_ggHg.f",
		"coupling_update_function":["setGGHGHEFTCoefficients"],
		"tensor_structures":["gggHTensStruc1","gggHTensStruc2","gggHTensStruc3","gggHTensStruc4"],
	    "associated_coupling":["GGGHEFT"],
		"fortran_cache": "gghgHEFT_cache.inc",
		"gluon_number":3
	},
	"ggHHEFT":{
		"directory":"ComputationFormFacHEFT",
		"fortran_bridge":"fortran_bridge_HEFT_ggH.cpp",
		"fortran_evaluation":"set_coefficient_HEFT_ggH.f",
		"coupling_update_function":["set1LoopGGHHEFTCoeffs"],
		"tensor_structures":["ggHTensStruc1"],
	    "associated_coupling":["GGHEFT"],
		"fortran_cache": "gghHEFT_cache.inc",
		"gluon_number":2
	},
	"ggHHEFTEPS0":{
		"directory":"ComputationFormFacHEFT",
		"fortran_bridge":"fortran_bridge_HEFT_ggH.cpp",
		"fortran_evaluation":"set_coefficient_HEFT_ggH.f",
		"coupling_update_function":["set1LoopGGHHEFTCoeffs"],
		"tensor_structures":["ggHTensStruc1"],
	    "associated_coupling":["EP01L"],
		"fortran_cache": "gghHEFT_cache.inc",
		"gluon_number":2
	},
	"ggHHEFTEPSM1":{
		"directory":"ComputationFormFacHEFT",
		"fortran_bridge":"fortran_bridge_HEFT_ggH.cpp",
		"fortran_evaluation":"set_coefficient_HEFT_ggH.f",
		"coupling_update_function":["set1LoopGGHHEFTCoeffs"],
		"tensor_structures":["ggHTensStruc1"],
	    "associated_coupling":["EPM11L"],
		"fortran_cache": "gghHEFT_cache.inc",
		"gluon_number":2
	},
	"ggHHEFTEPSM2":{
		"directory":"ComputationFormFacHEFT",
		"fortran_bridge":"fortran_bridge_HEFT_ggH.cpp",
		"fortran_evaluation":"set_coefficient_HEFT_ggH.f",
		"coupling_update_function":["set1LoopGGHHEFTCoeffs"],
		"tensor_structures":["ggHTensStruc1"],
	    "associated_coupling":["EPM21L"],
		"fortran_cache": "gghHEFT_cache.inc",
		"gluon_number":2
	}
}
